2007.05.07 19:53 B C:\estey\www\computing\web\html\chapter1\lecture1.html --> ftp.cv64.us /www/computing/web/html/chapter1 lecture1.html
2008.12.20 10:21 B C:\estey\www\computing\web\html\chapter1\lecture1.html --> ftp.cv64.com /web/html/chapter1 lecture1.html
2008.12.20 10:21 B C:\estey\www\computing\web\html\chapter1\lecture1.pdf --> ftp.cv64.com /web/html/chapter1 lecture1.pdf
2008.12.20 10:21 B C:\estey\www\computing\web\html\chapter1\max.jpg --> ftp.cv64.com /web/html/chapter1 max.jpg
2008.12.20 10:22 B C:\estey\www\computing\web\html\chapter1\resume1-1.html --> ftp.cv64.com /web/html/chapter1 resume1-1.html
2008.12.20 10:22 B C:\estey\www\computing\web\html\chapter1\resume1-1.jpg --> ftp.cv64.com /web/html/chapter1 resume1-1.jpg
2008.12.20 10:22 B C:\estey\www\computing\web\html\chapter1\resume1-2.html --> ftp.cv64.com /web/html/chapter1 resume1-2.html
2008.12.20 10:22 B C:\estey\www\computing\web\html\chapter1\resume1-2.jpg --> ftp.cv64.com /web/html/chapter1 resume1-2.jpg
2008.12.20 10:22 B C:\estey\www\computing\web\html\chapter1\resume1-3.html --> ftp.cv64.com /web/html/chapter1 resume1-3.html
2008.12.20 10:22 B C:\estey\www\computing\web\html\chapter1\resume1-3.jpg --> ftp.cv64.com /web/html/chapter1 resume1-3.jpg
2008.12.20 10:22 B C:\estey\www\computing\web\html\chapter1\resume1-4.html --> ftp.cv64.com /web/html/chapter1 resume1-4.html
2008.12.20 10:22 B C:\estey\www\computing\web\html\chapter1\resume1-4.jpg --> ftp.cv64.com /web/html/chapter1 resume1-4.jpg
2008.12.20 10:22 B C:\estey\www\computing\web\html\chapter1\resume1-5.html --> ftp.cv64.com /web/html/chapter1 resume1-5.html
2008.12.20 10:22 B C:\estey\www\computing\web\html\chapter1\resume1-5.jpg --> ftp.cv64.com /web/html/chapter1 resume1-5.jpg
2008.12.20 10:22 B C:\estey\www\computing\web\html\chapter1\resume1-6.html --> ftp.cv64.com /web/html/chapter1 resume1-6.html
2008.12.20 10:22 B C:\estey\www\computing\web\html\chapter1\resume1-6.jpg --> ftp.cv64.com /web/html/chapter1 resume1-6.jpg
2008.12.20 10:22 B C:\estey\www\computing\web\html\chapter1\WS_FTP.LOG --> ftp.cv64.com /web/html/chapter1 WS_FTP.LOG
2008.12.20 11:32 B C:\estey\www\computing\web\html\chapter1\lecture1.html --> ftp.cv64.com /computing/web/html/chapter1 lecture1.html
2008.12.20 11:32 B C:\estey\www\computing\web\html\chapter1\lecture1.pdf --> ftp.cv64.com /computing/web/html/chapter1 lecture1.pdf
2008.12.20 11:32 B C:\estey\www\computing\web\html\chapter1\max.jpg --> ftp.cv64.com /computing/web/html/chapter1 max.jpg
2008.12.20 11:32 B C:\estey\www\computing\web\html\chapter1\resume1-1.html --> ftp.cv64.com /computing/web/html/chapter1 resume1-1.html
2008.12.20 11:32 B C:\estey\www\computing\web\html\chapter1\resume1-1.jpg --> ftp.cv64.com /computing/web/html/chapter1 resume1-1.jpg
2008.12.20 11:32 B C:\estey\www\computing\web\html\chapter1\resume1-2.html --> ftp.cv64.com /computing/web/html/chapter1 resume1-2.html
2008.12.20 11:32 B C:\estey\www\computing\web\html\chapter1\resume1-2.jpg --> ftp.cv64.com /computing/web/html/chapter1 resume1-2.jpg
2008.12.20 11:32 B C:\estey\www\computing\web\html\chapter1\resume1-3.html --> ftp.cv64.com /computing/web/html/chapter1 resume1-3.html
2008.12.20 11:32 B C:\estey\www\computing\web\html\chapter1\resume1-3.jpg --> ftp.cv64.com /computing/web/html/chapter1 resume1-3.jpg
2008.12.20 11:32 B C:\estey\www\computing\web\html\chapter1\resume1-4.html --> ftp.cv64.com /computing/web/html/chapter1 resume1-4.html
2008.12.20 11:32 B C:\estey\www\computing\web\html\chapter1\resume1-4.jpg --> ftp.cv64.com /computing/web/html/chapter1 resume1-4.jpg
2008.12.20 11:32 B C:\estey\www\computing\web\html\chapter1\resume1-5.html --> ftp.cv64.com /computing/web/html/chapter1 resume1-5.html
2008.12.20 11:32 B C:\estey\www\computing\web\html\chapter1\resume1-5.jpg --> ftp.cv64.com /computing/web/html/chapter1 resume1-5.jpg
2008.12.20 11:32 B C:\estey\www\computing\web\html\chapter1\resume1-6.html --> ftp.cv64.com /computing/web/html/chapter1 resume1-6.html
2008.12.20 11:32 B C:\estey\www\computing\web\html\chapter1\resume1-6.jpg --> ftp.cv64.com /computing/web/html/chapter1 resume1-6.jpg
2008.12.20 11:32 B C:\estey\www\computing\web\html\chapter1\WS_FTP.LOG --> ftp.cv64.com /computing/web/html/chapter1 WS_FTP.LOG
